<svg width="20" height="11" viewBox="0 0 20 11" fill="none" xmlns="http://www.w3.org/2000/svg">
<g clip-path="url(#clip0_43_60)">
<mask id="mask0_43_60" style="mask-type:luminance" maskUnits="userSpaceOnUse" x="0" y="0" width="20" height="11">
<path d="M-0.000875473 10.085H19.3281V-3.91006e-05H-0.000875473V10.085Z" fill="white"/>
</mask>
<g mask="url(#mask0_43_60)">
<path d="M0.664062 0.74707L9.66406 8.74707L18.664 0.74707" stroke="#867876" stroke-width="2"/>
</g>
</g>
<defs>
<clipPath id="clip0_43_60">
<rect width="20" height="11" fill="white"/>
</clipPath>
</defs>
</svg>
