<svg width="15" height="15" viewBox="0 0 15 15" fill="none" xmlns="http://www.w3.org/2000/svg">
<path d="M5 1H1V5" stroke="#1A0201" stroke-opacity="0.5" stroke-width="2"/>
<path d="M5 14H1V10" stroke="#1A0201" stroke-opacity="0.5" stroke-width="2"/>
<path d="M10 14H14V10" stroke="#1A0201" stroke-opacity="0.5" stroke-width="2"/>
<path d="M10 1H14V5" stroke="#1A0201" stroke-opacity="0.5" stroke-width="2"/>
</svg>
